…
## Simple Training Load Metrics 

Got Garmin activity data and quick analysis of training time 


```r
data <- read.csv("Activities_to_2022_03_29.csv")
tibble(data)
```

```
## # A tibble: 808 × 44
##    Activity.Type  Date   Favorite Title    Distance Calories Time  Avg.HR Max.HR
##    <chr>          <chr>  <chr>    <chr>    <chr>    <chr>    <chr> <chr>  <chr> 
##  1 Pool Swimming  2022-… false    Pool Sw… 1,425    420      00:2… --     --    
##  2 Virtual Cycli… 2022-… false    Zwift -… 55.84    1,240    01:2… 153    172   
##  3 Running        2022-… false    Corman … 5.41     583      00:3… 164    187   
##  4 Cycling        2022-… false    Corman … 8.96     297      00:3… 118    151   
##  5 Pool Swimming  2022-… false    Pool Sw… 1,625    512      00:2… --     --    
##  6 Virtual Cycli… 2022-… false    Zwift -… 34.83    940      01:0… --     --    
##  7 Cross Country… 2022-… false    Corman … 3.38     152      00:1… 112    130   
##  8 Pool Swimming  2022-… false    Pool Sw… 5,000    1,499    01:4… --     --    
##  9 Virtual Cycli… 2022-… false    Zwift -… 24.76    521      00:5… --     --    
## 10 Pool Swimming  2022-… false    Pool Sw… 1,600    482      00:2… --     --    
## # … with 798 more rows, and 35 more variables: Aerobic.TE <chr>,
## #   Avg.Run.Cadence <chr>, Max.Run.Cadence <chr>, Avg.Pace <chr>,
## #   Best.Pace <chr>, Total.Ascent <chr>, Total.Descent <chr>,
## #   Avg.Stride.Length <dbl>, Avg.Vertical.Ratio <dbl>,
## #   Avg.Vertical.Oscillation <dbl>, Avg.Strokes <chr>, X.. <chr>,
## #   Normalized.Power...NP.. <chr>, Training.Stress.Score. <dbl>,
## #   Max.Avg.Power..20.min. <chr>, Avg.Power <chr>, Max.Power <chr>, …
```
…
